### Event S insert a new style of art with ID, Name attributes
### Event A insert a new artist with ID, Name, Birth, Death, ID of style attributes
### Event M insert a new museum with ID, address, floorNumber, roomCapacity/floor
### and room IDs attributes
### Event N insert a new painting into a specific room with ID, Name attributes
### Event R insert a new room into a museum and transfer paintings from other room to the new one
### Event V Move a painting from one room to another
### Event L Move all paintings from one room to another
### Event G MergeRooms - Transfer all paintings from room_src to room_dst and remove room_src from museum
### Event O insert a new floor into a museum with room number and room ids attributes
### Event T print every painting from a room specified by RoomID, floor number and museum ID
### Event P Print every registration from the database 
### Events:  'S':2 'A':5 'M':2 'N':20 'O':4 'R':5 'V':10 'L':10 'G':60 'T':10 'P':2  -- Total: 130
S 101 Style1
S 102 Style2
A 20001 Artist1 1952 2002 102
A 20002 Artist2 1941 1991 101
A 20003 Artist3 1800 1850 101
A 20004 Artist4 1882 1932 101
A 20005 Artist5 1824 1874 102
M 5001 Museum1 Town1 5
   4 5001003 5001004 5001001 5001002 
   5 5001101 5001104 5001102 5001105 5001103 
   6 5001205 5001201 5001206 5001203 5001204 5001202 
   5 5001303 5001305 5001304 5001302 5001301 
   8 5001403 5001406 5001404 5001405 5001407 5001402 5001401 5001408 
   8 5001502 5001503 5001505 5001501 5001504 5001507 5001508 5001506 
M 5002 Museum2 Town2 1
   1 5002001 
   6 5002105 5002106 5002102 5002103 5002104 5002101 
N 8000004 Painting4 20005 5001 0 5001004
N 8000001 Painting1 20004 5002 1 5002104
N 8000010 Painting10 20003 5001 4 5001401
N 8000007 Painting7 20001 5001 5 5001507
N 8000008 Painting8 20001 5002 0 5002001
N 8000005 Painting5 20003 5002 1 5002105
N 8000012 Painting12 20001 5001 5 5001508
N 8000006 Painting6 20002 5001 1 5001101
N 8000003 Painting3 20003 5002 1 5002102
N 8000011 Painting11 20003 5002 0 5002001
N 8000018 Painting18 20001 5002 0 5002001
N 8000017 Painting17 20001 5001 3 5001301
N 8000009 Painting9 20005 5001 4 5001405
N 8000014 Painting14 20004 5002 0 5002001
N 8000020 Painting20 20004 5001 5 5001502
N 8000013 Painting13 20004 5001 3 5001303
N 8000002 Painting2 20001 5001 5 5001503
N 8000019 Painting19 20003 5002 1 5002102
N 8000016 Painting16 20003 5001 1 5001102
N 8000015 Painting15 20005 5002 1 5002103
P
### P DONE
###   5001 Museum1 Town1
###      FL[0]: 5001001
###             5001002
###             5001003
###             5001004
###               8000004 Painting4 20005 Artist5 102 Style2
###      FL[1]: 5001101
###               8000006 Painting6 20002 Artist2 101 Style1
###             5001102
###               8000016 Painting16 20003 Artist3 101 Style1
###             5001103
###             5001104
###             5001105
###      FL[2]: 5001201
###             5001202
###             5001203
###             5001204
###             5001205
###             5001206
###      FL[3]: 5001301
###               8000017 Painting17 20001 Artist1 102 Style2
###             5001302
###             5001303
###               8000013 Painting13 20004 Artist4 101 Style1
###             5001304
###             5001305
###      FL[4]: 5001401
###               8000010 Painting10 20003 Artist3 101 Style1
###             5001402
###             5001403
###             5001404
###             5001405
###               8000009 Painting9 20005 Artist5 102 Style2
###             5001406
###             5001407
###             5001408
###      FL[5]: 5001501
###             5001502
###               8000020 Painting20 20004 Artist4 101 Style1
###             5001503
###               8000002 Painting2 20001 Artist1 102 Style2
###             5001504
###             5001505
###             5001506
###             5001507
###               8000007 Painting7 20001 Artist1 102 Style2
###             5001508
###               8000012 Painting12 20001 Artist1 102 Style2
###   5002 Museum2 Town2
###      FL[0]: 5002001
###               8000008 Painting8 20001 Artist1 102 Style2
###               8000011 Painting11 20003 Artist3 101 Style1
###               8000014 Painting14 20004 Artist4 101 Style1
###               8000018 Painting18 20001 Artist1 102 Style2
###      FL[1]: 5002101
###             5002102
###               8000003 Painting3 20003 Artist3 101 Style1
###               8000019 Painting19 20003 Artist3 101 Style1
###             5002103
###               8000015 Painting15 20005 Artist5 102 Style2
###             5002104
###               8000001 Painting1 20004 Artist4 101 Style1
###             5002105
###               8000005 Painting5 20003 Artist3 101 Style1
###             5002106
R 5002 0 5002002 5002001 101
G 5001401 5001403
V 8000002 5001 5 5001503 5002 0 5002001
O 5002 1 5002201 
V 8000015 5002 1 5002103 5001 5 5001508
L 5002 0 5002002 5002 1 5002103
T 5002 1 5002104
V 8000016 5001 1 5001102 5002 2 5002201
T 5001 4 5001405
L 5002 0 5002001 5001 4 5001404
G 5002001 5002002
T 5001 0 5001004
G 5001103 5001104
V 8000018 5001 4 5001404 5001 4 5001402
G 5001301 5001302
V 8000005 5002 1 5002105 5002 1 5002104
V 8000010 5001 4 5001403 5001 4 5001405
V 8000003 5002 1 5002102 5001 1 5001104
T 5002 1 5002102
T 5002 2 5002201
T 5001 4 5001404
V 8000012 5001 5 5001508 5001 4 5001404
G 5001506 5001507
V 8000004 5001 0 5001004 5002 0 5002002
T 5002 0 5002002
T 5002 0 5002002
L 5002 0 5002002 5002 1 5002102
G 5001302 5001305
V 8000019 5002 1 5002102 5002 0 5002002
G 5001508 5001507
L 5001 4 5001402 5001 0 5001004
L 5002 1 5002103 5001 3 5001305
G 5001507 5001501
L 5002 0 5002002 5001 3 5001303
G 5001105 5001101
O 5002 8 5002307 5002304 5002301 5002305 5002306 5002303 5002308 5002302 
T 5001 5 5001502
T 5001 3 5001303
R 5001 3 5001306 5001305 102
G 5002104 5002105
O 5002 6 5002404 5002402 5002405 5002401 5002406 5002403 
G 5001404 5001403
L 5002 2 5002201 5001 4 5001406
G 5001101 5001102
O 5002 9 5002506 5002504 5002508 5002502 5002503 5002509 5002507 5002501 5002505 
R 5001 3 5001307 5001305 -1
G 5002304 5002308
L 5001 1 5001104 5002 4 5002402
R 5002 1 5002104 5002105 101
L 5001 1 5001102 5001 2 5001206
G 5001503 5001505
G 5002405 5002406
G 5001408 5001403
G 5001406 5001405
G 5002101 5002106
L 5001 4 5001405 5002 0 5002002
G 5001202 5001201
G 5002302 5002303
G 5001206 5001204
G 5001303 5001307
R 5002 0 5002003 5002002 101
G 5001004 5001001
G 5002305 5002301
G 5001306 5001305
G 5001305 5001307
G 5002105 5002102
G 5002308 5002307
G 5001402 5001403
G 5001405 5001407
G 5002002 5002003
G 5002404 5002406
G 5001204 5001201
G 5001205 5001203
G 5002307 5002301
G 5001102 5001104
G 5001201 5001203
G 5001407 5001403
G 5002301 5002306
G 5002505 5002507
G 5002106 5002103
G 5002508 5002503
G 5001501 5001502
G 5001001 5001002
G 5002306 5002303
G 5002403 5002401
G 5001002 5001003
G 5002104 5002102
G 5001307 5001304
G 5002402 5002401
G 5001505 5001504
G 5002103 5002102
G 5002406 5002401
G 5001502 5001504
G 5002504 5002509
G 5002501 5002502
G 5002506 5002503
G 5002503 5002509
G 5002509 5002502
G 5002507 5002502
P
### P DONE
###   5001 Museum1 Town1
###      FL[0]: 5001003
###               8000018 Painting18 20001 Artist1 102 Style2
###      FL[1]: 5001104
###      FL[2]: 5001203
###               8000006 Painting6 20002 Artist2 101 Style1
###      FL[3]: 5001304
###               8000011 Painting11 20003 Artist3 101 Style1
###               8000013 Painting13 20004 Artist4 101 Style1
###               8000014 Painting14 20004 Artist4 101 Style1
###               8000017 Painting17 20001 Artist1 102 Style2
###               8000019 Painting19 20003 Artist3 101 Style1
###      FL[4]: 5001403
###               8000002 Painting2 20001 Artist1 102 Style2
###               8000008 Painting8 20001 Artist1 102 Style2
###               8000012 Painting12 20001 Artist1 102 Style2
###      FL[5]: 5001504
###               8000007 Painting7 20001 Artist1 102 Style2
###               8000015 Painting15 20005 Artist5 102 Style2
###               8000020 Painting20 20004 Artist4 101 Style1
###   5002 Museum2 Town2
###      FL[0]: 5002003
###               8000009 Painting9 20005 Artist5 102 Style2
###               8000010 Painting10 20003 Artist3 101 Style1
###               8000016 Painting16 20003 Artist3 101 Style1
###      FL[1]: 5002102
###               8000001 Painting1 20004 Artist4 101 Style1
###               8000004 Painting4 20005 Artist5 102 Style2
###               8000005 Painting5 20003 Artist3 101 Style1
###      FL[2]: 5002201
###      FL[3]: 5002303
###      FL[4]: 5002401
###               8000003 Painting3 20003 Artist3 101 Style1
###      FL[5]: 5002502
### OK!